<mxfile host="app.diagrams.net" modified="2023-10-03T22:36:08.895Z" agent="Mozilla/5.0 (Windows NT 10.0; Win64; x64) AppleWebKit/537.36 (KHTML, like Gecko) Chrome/117.0.0.0 Safari/537.36" version="22.0.2" etag="Ti8EEWTJmQRz4wdSkD9d" type="gitlab">
  <diagram name="Página-1" id="O1A6Aqy6HRCg62wnSWmS">
    <mxGraphModel>
      <root>
        <mxCell id="0" />
        <mxCell id="1" parent="0" />
      </root>
    </mxGraphModel>
  </diagram>
</mxfile>
